[
    {
        "type": "archive",
        "archive-type": "tar-gzip",
        "url": "https://static.crates.io/crates/alsa-sys/alsa-sys-0.1.2.crate",
        "sha256": "b0edcbbf9ef68f15ae1b620f722180b82a98b6f0628d30baa6b8d2a5abc87d58",
        "dest": "cargo/vendor/alsa-sys-0.1.2"
    },
    {
        "type": "file",
        "url": "data:%7B%22package%22%3A%20%22b0edcbbf9ef68f15ae1b620f722180b82a98b6f0628d30baa6b8d2a5abc87d58%22%2C%20%22files%22%3A%20%7B%7D%7D",
        "dest": "cargo/vendor/alsa-sys-0.1.2",
        "dest-filename": ".cargo-checksum.json"
    },
    {
        "type": "archive",
        "archive-type": "tar-gzip",
        "url": "https://static.crates.io/crates/anyhow/anyhow-1.0.47.crate",
        "sha256": "38d9ff5d688f1c13395289f67db01d4826b46dd694e7580accdc3e8430f2d98e",
        "dest": "cargo/vendor/anyhow-1.0.47"
    },
    {
        "type": "file",
        "url": "data:%7B%22package%22%3A%20%2238d9ff5d688f1c13395289f67db01d4826b46dd694e7580accdc3e8430f2d98e%22%2C%20%22files%22%3A%20%7B%7D%7D",
        "dest": "cargo/vendor/anyhow-1.0.47",
        "dest-filename": ".cargo-checksum.json"
    },
    {
        "type": "archive",
        "archive-type": "tar-gzip",
        "url": "https://static.crates.io/crates/atk/atk-0.14.0.crate",
        "sha256": "a83b21d2aa75e464db56225e1bda2dd5993311ba1095acaa8fa03d1ae67026ba",
        "dest": "cargo/vendor/atk-0.14.0"
    },
    {
        "type": "file",
        "url": "data:%7B%22package%22%3A%20%22a83b21d2aa75e464db56225e1bda2dd5993311ba1095acaa8fa03d1ae67026ba%22%2C%20%22files%22%3A%20%7B%7D%7D",
        "dest": "cargo/vendor/atk-0.14.0",
        "dest-filename": ".cargo-checksum.json"
    },
    {
        "type": "archive",
        "archive-type": "tar-gzip",
        "url": "https://static.crates.io/crates/atk-sys/atk-sys-0.14.0.crate",
        "sha256": "badcf670157c84bb8b1cf6b5f70b650fed78da2033c9eed84c4e49b11cbe83ea",
        "dest": "cargo/vendor/atk-sys-0.14.0"
    },
    {
        "type": "file",
        "url": "data:%7B%22package%22%3A%20%22badcf670157c84bb8b1cf6b5f70b650fed78da2033c9eed84c4e49b11cbe83ea%22%2C%20%22files%22%3A%20%7B%7D%7D",
        "dest": "cargo/vendor/atk-sys-0.14.0",
        "dest-filename": ".cargo-checksum.json"
    },
    {
        "type": "archive",
        "archive-type": "tar-gzip",
        "url": "https://static.crates.io/crates/autocfg/autocfg-1.0.1.crate",
        "sha256": "cdb031dd78e28731d87d56cc8ffef4a8f36ca26c38fe2de700543e627f8a464a",
        "dest": "cargo/vendor/autocfg-1.0.1"
    },
    {
        "type": "file",
        "url": "data:%7B%22package%22%3A%20%22cdb031dd78e28731d87d56cc8ffef4a8f36ca26c38fe2de700543e627f8a464a%22%2C%20%22files%22%3A%20%7B%7D%7D",
        "dest": "cargo/vendor/autocfg-1.0.1",
        "dest-filename": ".cargo-checksum.json"
    },
    {
        "type": "archive",
        "archive-type": "tar-gzip",
        "url": "https://static.crates.io/crates/bindgen/bindgen-0.56.0.crate",
        "sha256": "2da379dbebc0b76ef63ca68d8fc6e71c0f13e59432e0987e508c1820e6ab5239",
        "dest": "cargo/vendor/bindgen-0.56.0"
    },
    {
        "type": "file",
        "url": "data:%7B%22package%22%3A%20%222da379dbebc0b76ef63ca68d8fc6e71c0f13e59432e0987e508c1820e6ab5239%22%2C%20%22files%22%3A%20%7B%7D%7D",
        "dest": "cargo/vendor/bindgen-0.56.0",
        "dest-filename": ".cargo-checksum.json"
    },
    {
        "type": "archive",
        "archive-type": "tar-gzip",
        "url": "https://static.crates.io/crates/bitflags/bitflags-1.3.2.crate",
        "sha256": "bef38d45163c2f1dde094a7dfd33ccf595c92905c8f8f4fdc18d06fb1037718a",
        "dest": "cargo/vendor/bitflags-1.3.2"
    },
    {
        "type": "file",
        "url": "data:%7B%22package%22%3A%20%22bef38d45163c2f1dde094a7dfd33ccf595c92905c8f8f4fdc18d06fb1037718a%22%2C%20%22files%22%3A%20%7B%7D%7D",
        "dest": "cargo/vendor/bitflags-1.3.2",
        "dest-filename": ".cargo-checksum.json"
    },
    {
        "type": "archive",
        "archive-type": "tar-gzip",
        "url": "https://static.crates.io/crates/cairo-rs/cairo-rs-0.14.9.crate",
        "sha256": "33b5725979db0c586d98abad2193cdb612dd40ef95cd26bd99851bf93b3cb482",
        "dest": "cargo/vendor/cairo-rs-0.14.9"
    },
    {
        "type": "file",
        "url": "data:%7B%22package%22%3A%20%2233b5725979db0c586d98abad2193cdb612dd40ef95cd26bd99851bf93b3cb482%22%2C%20%22files%22%3A%20%7B%7D%7D",
        "dest": "cargo/vendor/cairo-rs-0.14.9",
        "dest-filename": ".cargo-checksum.json"
    },
    {
        "type": "archive",
        "archive-type": "tar-gzip",
        "url": "https://static.crates.io/crates/cairo-sys-rs/cairo-sys-rs-0.14.9.crate",
        "sha256": "b448b876970834fda82ba3aeaccadbd760206b75388fc5c1b02f1e343b697570",
        "dest": "cargo/vendor/cairo-sys-rs-0.14.9"
    },
    {
        "type": "file",
        "url": "data:%7B%22package%22%3A%20%22b448b876970834fda82ba3aeaccadbd760206b75388fc5c1b02f1e343b697570%22%2C%20%22files%22%3A%20%7B%7D%7D",
        "dest": "cargo/vendor/cairo-sys-rs-0.14.9",
        "dest-filename": ".cargo-checksum.json"
    },
    {
        "type": "archive",
        "archive-type": "tar-gzip",
        "url": "https://static.crates.io/crates/cexpr/cexpr-0.4.0.crate",
        "sha256": "f4aedb84272dbe89af497cf81375129abda4fc0a9e7c5d317498c15cc30c0d27",
        "dest": "cargo/vendor/cexpr-0.4.0"
    },
    {
        "type": "file",
        "url": "data:%7B%22package%22%3A%20%22f4aedb84272dbe89af497cf81375129abda4fc0a9e7c5d317498c15cc30c0d27%22%2C%20%22files%22%3A%20%7B%7D%7D",
        "dest": "cargo/vendor/cexpr-0.4.0",
        "dest-filename": ".cargo-checksum.json"
    },
    {
        "type": "archive",
        "archive-type": "tar-gzip",
        "url": "https://static.crates.io/crates/cfg-expr/cfg-expr-0.8.1.crate",
        "sha256": "b412e83326147c2bb881f8b40edfbf9905b9b8abaebd0e47ca190ba62fda8f0e",
        "dest": "cargo/vendor/cfg-expr-0.8.1"
    },
    {
        "type": "file",
        "url": "data:%7B%22package%22%3A%20%22b412e83326147c2bb881f8b40edfbf9905b9b8abaebd0e47ca190ba62fda8f0e%22%2C%20%22files%22%3A%20%7B%7D%7D",
        "dest": "cargo/vendor/cfg-expr-0.8.1",
        "dest-filename": ".cargo-checksum.json"
    },
    {
        "type": "archive",
        "archive-type": "tar-gzip",
        "url": "https://static.crates.io/crates/cfg-if/cfg-if-1.0.0.crate",
        "sha256": "baf1de4339761588bc0619e3cbc0120ee582ebb74b53b4efbf79117bd2da40fd",
        "dest": "cargo/vendor/cfg-if-1.0.0"
    },
    {
        "type": "file",
        "url": "data:%7B%22package%22%3A%20%22baf1de4339761588bc0619e3cbc0120ee582ebb74b53b4efbf79117bd2da40fd%22%2C%20%22files%22%3A%20%7B%7D%7D",
        "dest": "cargo/vendor/cfg-if-1.0.0",
        "dest-filename": ".cargo-checksum.json"
    },
    {
        "type": "archive",
        "archive-type": "tar-gzip",
        "url": "https://static.crates.io/crates/clang-sys/clang-sys-1.3.0.crate",
        "sha256": "fa66045b9cb23c2e9c1520732030608b02ee07e5cfaa5a521ec15ded7fa24c90",
        "dest": "cargo/vendor/clang-sys-1.3.0"
    },
    {
        "type": "file",
        "url": "data:%7B%22package%22%3A%20%22fa66045b9cb23c2e9c1520732030608b02ee07e5cfaa5a521ec15ded7fa24c90%22%2C%20%22files%22%3A%20%7B%7D%7D",
        "dest": "cargo/vendor/clang-sys-1.3.0",
        "dest-filename": ".cargo-checksum.json"
    },
    {
        "type": "archive",
        "archive-type": "tar-gzip",
        "url": "https://static.crates.io/crates/core-foundation-sys/core-foundation-sys-0.6.2.crate",
        "sha256": "e7ca8a5221364ef15ce201e8ed2f609fc312682a8f4e0e3d4aa5879764e0fa3b",
        "dest": "cargo/vendor/core-foundation-sys-0.6.2"
    },
    {
        "type": "file",
        "url": "data:%7B%22package%22%3A%20%22e7ca8a5221364ef15ce201e8ed2f609fc312682a8f4e0e3d4aa5879764e0fa3b%22%2C%20%22files%22%3A%20%7B%7D%7D",
        "dest": "cargo/vendor/core-foundation-sys-0.6.2",
        "dest-filename": ".cargo-checksum.json"
    },
    {
        "type": "archive",
        "archive-type": "tar-gzip",
        "url": "https://static.crates.io/crates/coreaudio-rs/coreaudio-rs-0.9.1.crate",
        "sha256": "f229761965dad3e9b11081668a6ea00f1def7aa46062321b5ec245b834f6e491",
        "dest": "cargo/vendor/coreaudio-rs-0.9.1"
    },
    {
        "type": "file",
        "url": "data:%7B%22package%22%3A%20%22f229761965dad3e9b11081668a6ea00f1def7aa46062321b5ec245b834f6e491%22%2C%20%22files%22%3A%20%7B%7D%7D",
        "dest": "cargo/vendor/coreaudio-rs-0.9.1",
        "dest-filename": ".cargo-checksum.json"
    },
    {
        "type": "archive",
        "archive-type": "tar-gzip",
        "url": "https://static.crates.io/crates/coreaudio-sys/coreaudio-sys-0.2.8.crate",
        "sha256": "2b7e3347be6a09b46aba228d6608386739fb70beff4f61e07422da87b0bb31fa",
        "dest": "cargo/vendor/coreaudio-sys-0.2.8"
    },
    {
        "type": "file",
        "url": "data:%7B%22package%22%3A%20%222b7e3347be6a09b46aba228d6608386739fb70beff4f61e07422da87b0bb31fa%22%2C%20%22files%22%3A%20%7B%7D%7D",
        "dest": "cargo/vendor/coreaudio-sys-0.2.8",
        "dest-filename": ".cargo-checksum.json"
    },
    {
        "type": "archive",
        "archive-type": "tar-gzip",
        "url": "https://static.crates.io/crates/cpal/cpal-0.11.0.crate",
        "sha256": "6b55d55d69f403f62a95bd3c04b431e0aedf5120c70f15d07a8edd234443dd59",
        "dest": "cargo/vendor/cpal-0.11.0"
    },
    {
        "type": "file",
        "url": "data:%7B%22package%22%3A%20%226b55d55d69f403f62a95bd3c04b431e0aedf5120c70f15d07a8edd234443dd59%22%2C%20%22files%22%3A%20%7B%7D%7D",
        "dest": "cargo/vendor/cpal-0.11.0",
        "dest-filename": ".cargo-checksum.json"
    },
    {
        "type": "archive",
        "archive-type": "tar-gzip",
        "url": "https://static.crates.io/crates/crossbeam-channel/crossbeam-channel-0.5.1.crate",
        "sha256": "06ed27e177f16d65f0f0c22a213e17c696ace5dd64b14258b52f9417ccb52db4",
        "dest": "cargo/vendor/crossbeam-channel-0.5.1"
    },
    {
        "type": "file",
        "url": "data:%7B%22package%22%3A%20%2206ed27e177f16d65f0f0c22a213e17c696ace5dd64b14258b52f9417ccb52db4%22%2C%20%22files%22%3A%20%7B%7D%7D",
        "dest": "cargo/vendor/crossbeam-channel-0.5.1",
        "dest-filename": ".cargo-checksum.json"
    },
    {
        "type": "archive",
        "archive-type": "tar-gzip",
        "url": "https://static.crates.io/crates/crossbeam-utils/crossbeam-utils-0.8.5.crate",
        "sha256": "d82cfc11ce7f2c3faef78d8a684447b40d503d9681acebed6cb728d45940c4db",
        "dest": "cargo/vendor/crossbeam-utils-0.8.5"
    },
    {
        "type": "file",
        "url": "data:%7B%22package%22%3A%20%22d82cfc11ce7f2c3faef78d8a684447b40d503d9681acebed6cb728d45940c4db%22%2C%20%22files%22%3A%20%7B%7D%7D",
        "dest": "cargo/vendor/crossbeam-utils-0.8.5",
        "dest-filename": ".cargo-checksum.json"
    },
    {
        "type": "archive",
        "archive-type": "tar-gzip",
        "url": "https://static.crates.io/crates/either/either-1.6.1.crate",
        "sha256": "e78d4f1cc4ae33bbfc157ed5d5a5ef3bc29227303d595861deb238fcec4e9457",
        "dest": "cargo/vendor/either-1.6.1"
    },
    {
        "type": "file",
        "url": "data:%7B%22package%22%3A%20%22e78d4f1cc4ae33bbfc157ed5d5a5ef3bc29227303d595861deb238fcec4e9457%22%2C%20%22files%22%3A%20%7B%7D%7D",
        "dest": "cargo/vendor/either-1.6.1",
        "dest-filename": ".cargo-checksum.json"
    },
    {
        "type": "archive",
        "archive-type": "tar-gzip",
        "url": "https://static.crates.io/crates/field-offset/field-offset-0.3.4.crate",
        "sha256": "1e1c54951450cbd39f3dbcf1005ac413b49487dabf18a720ad2383eccfeffb92",
        "dest": "cargo/vendor/field-offset-0.3.4"
    },
    {
        "type": "file",
        "url": "data:%7B%22package%22%3A%20%221e1c54951450cbd39f3dbcf1005ac413b49487dabf18a720ad2383eccfeffb92%22%2C%20%22files%22%3A%20%7B%7D%7D",
        "dest": "cargo/vendor/field-offset-0.3.4",
        "dest-filename": ".cargo-checksum.json"
    },
    {
        "type": "archive",
        "archive-type": "tar-gzip",
        "url": "https://static.crates.io/crates/futures-channel/futures-channel-0.3.17.crate",
        "sha256": "5da6ba8c3bb3c165d3c7319fc1cc8304facf1fb8db99c5de877183c08a273888",
        "dest": "cargo/vendor/futures-channel-0.3.17"
    },
    {
        "type": "file",
        "url": "data:%7B%22package%22%3A%20%225da6ba8c3bb3c165d3c7319fc1cc8304facf1fb8db99c5de877183c08a273888%22%2C%20%22files%22%3A%20%7B%7D%7D",
        "dest": "cargo/vendor/futures-channel-0.3.17",
        "dest-filename": ".cargo-checksum.json"
    },
    {
        "type": "archive",
        "archive-type": "tar-gzip",
        "url": "https://static.crates.io/crates/futures-core/futures-core-0.3.17.crate",
        "sha256": "88d1c26957f23603395cd326b0ffe64124b818f4449552f960d815cfba83a53d",
        "dest": "cargo/vendor/futures-core-0.3.17"
    },
    {
        "type": "file",
        "url": "data:%7B%22package%22%3A%20%2288d1c26957f23603395cd326b0ffe64124b818f4449552f960d815cfba83a53d%22%2C%20%22files%22%3A%20%7B%7D%7D",
        "dest": "cargo/vendor/futures-core-0.3.17",
        "dest-filename": ".cargo-checksum.json"
    },
    {
        "type": "archive",
        "archive-type": "tar-gzip",
        "url": "https://static.crates.io/crates/futures-executor/futures-executor-0.3.17.crate",
        "sha256": "45025be030969d763025784f7f355043dc6bc74093e4ecc5000ca4dc50d8745c",
        "dest": "cargo/vendor/futures-executor-0.3.17"
    },
    {
        "type": "file",
        "url": "data:%7B%22package%22%3A%20%2245025be030969d763025784f7f355043dc6bc74093e4ecc5000ca4dc50d8745c%22%2C%20%22files%22%3A%20%7B%7D%7D",
        "dest": "cargo/vendor/futures-executor-0.3.17",
        "dest-filename": ".cargo-checksum.json"
    },
    {
        "type": "archive",
        "archive-type": "tar-gzip",
        "url": "https://static.crates.io/crates/futures-io/futures-io-0.3.17.crate",
        "sha256": "522de2a0fe3e380f1bc577ba0474108faf3f6b18321dbf60b3b9c39a75073377",
        "dest": "cargo/vendor/futures-io-0.3.17"
    },
    {
        "type": "file",
        "url": "data:%7B%22package%22%3A%20%22522de2a0fe3e380f1bc577ba0474108faf3f6b18321dbf60b3b9c39a75073377%22%2C%20%22files%22%3A%20%7B%7D%7D",
        "dest": "cargo/vendor/futures-io-0.3.17",
        "dest-filename": ".cargo-checksum.json"
    },
    {
        "type": "archive",
        "archive-type": "tar-gzip",
        "url": "https://static.crates.io/crates/futures-task/futures-task-0.3.17.crate",
        "sha256": "1d3d00f4eddb73e498a54394f228cd55853bdf059259e8e7bc6e69d408892e99",
        "dest": "cargo/vendor/futures-task-0.3.17"
    },
    {
        "type": "file",
        "url": "data:%7B%22package%22%3A%20%221d3d00f4eddb73e498a54394f228cd55853bdf059259e8e7bc6e69d408892e99%22%2C%20%22files%22%3A%20%7B%7D%7D",
        "dest": "cargo/vendor/futures-task-0.3.17",
        "dest-filename": ".cargo-checksum.json"
    },
    {
        "type": "archive",
        "archive-type": "tar-gzip",
        "url": "https://static.crates.io/crates/futures-util/futures-util-0.3.17.crate",
        "sha256": "36568465210a3a6ee45e1f165136d68671471a501e632e9a98d96872222b5481",
        "dest": "cargo/vendor/futures-util-0.3.17"
    },
    {
        "type": "file",
        "url": "data:%7B%22package%22%3A%20%2236568465210a3a6ee45e1f165136d68671471a501e632e9a98d96872222b5481%22%2C%20%22files%22%3A%20%7B%7D%7D",
        "dest": "cargo/vendor/futures-util-0.3.17",
        "dest-filename": ".cargo-checksum.json"
    },
    {
        "type": "archive",
        "archive-type": "tar-gzip",
        "url": "https://static.crates.io/crates/gdk/gdk-0.14.3.crate",
        "sha256": "b9d749dcfc00d8de0d7c3a289e04a04293eb5ba3d8a4e64d64911d481fa9933b",
        "dest": "cargo/vendor/gdk-0.14.3"
    },
    {
        "type": "file",
        "url": "data:%7B%22package%22%3A%20%22b9d749dcfc00d8de0d7c3a289e04a04293eb5ba3d8a4e64d64911d481fa9933b%22%2C%20%22files%22%3A%20%7B%7D%7D",
        "dest": "cargo/vendor/gdk-0.14.3",
        "dest-filename": ".cargo-checksum.json"
    },
    {
        "type": "archive",
        "archive-type": "tar-gzip",
        "url": "https://static.crates.io/crates/gdk-pixbuf/gdk-pixbuf-0.14.0.crate",
        "sha256": "534192cb8f01daeb8fab2c8d4baa8f9aae5b7a39130525779f5c2608e235b10f",
        "dest": "cargo/vendor/gdk-pixbuf-0.14.0"
    },
    {
        "type": "file",
        "url": "data:%7B%22package%22%3A%20%22534192cb8f01daeb8fab2c8d4baa8f9aae5b7a39130525779f5c2608e235b10f%22%2C%20%22files%22%3A%20%7B%7D%7D",
        "dest": "cargo/vendor/gdk-pixbuf-0.14.0",
        "dest-filename": ".cargo-checksum.json"
    },
    {
        "type": "archive",
        "archive-type": "tar-gzip",
        "url": "https://static.crates.io/crates/gdk-pixbuf-sys/gdk-pixbuf-sys-0.14.0.crate",
        "sha256": "f097c0704201fbc8f69c1762dc58c6947c8bb188b8ed0bc7e65259f1894fe590",
        "dest": "cargo/vendor/gdk-pixbuf-sys-0.14.0"
    },
    {
        "type": "file",
        "url": "data:%7B%22package%22%3A%20%22f097c0704201fbc8f69c1762dc58c6947c8bb188b8ed0bc7e65259f1894fe590%22%2C%20%22files%22%3A%20%7B%7D%7D",
        "dest": "cargo/vendor/gdk-pixbuf-sys-0.14.0",
        "dest-filename": ".cargo-checksum.json"
    },
    {
        "type": "archive",
        "archive-type": "tar-gzip",
        "url": "https://static.crates.io/crates/gdk-sys/gdk-sys-0.14.0.crate",
        "sha256": "0e091b3d3d6696949ac3b3fb3c62090e5bfd7bd6850bef5c3c5ea701de1b1f1e",
        "dest": "cargo/vendor/gdk-sys-0.14.0"
    },
    {
        "type": "file",
        "url": "data:%7B%22package%22%3A%20%220e091b3d3d6696949ac3b3fb3c62090e5bfd7bd6850bef5c3c5ea701de1b1f1e%22%2C%20%22files%22%3A%20%7B%7D%7D",
        "dest": "cargo/vendor/gdk-sys-0.14.0",
        "dest-filename": ".cargo-checksum.json"
    },
    {
        "type": "archive",
        "archive-type": "tar-gzip",
        "url": "https://static.crates.io/crates/gio/gio-0.14.8.crate",
        "sha256": "711c3632b3ebd095578a9c091418d10fed492da9443f58ebc8f45efbeb215cb0",
        "dest": "cargo/vendor/gio-0.14.8"
    },
    {
        "type": "file",
        "url": "data:%7B%22package%22%3A%20%22711c3632b3ebd095578a9c091418d10fed492da9443f58ebc8f45efbeb215cb0%22%2C%20%22files%22%3A%20%7B%7D%7D",
        "dest": "cargo/vendor/gio-0.14.8",
        "dest-filename": ".cargo-checksum.json"
    },
    {
        "type": "archive",
        "archive-type": "tar-gzip",
        "url": "https://static.crates.io/crates/gio-sys/gio-sys-0.14.0.crate",
        "sha256": "c0a41df66e57fcc287c4bcf74fc26b884f31901ea9792ec75607289b456f48fa",
        "dest": "cargo/vendor/gio-sys-0.14.0"
    },
    {
        "type": "file",
        "url": "data:%7B%22package%22%3A%20%22c0a41df66e57fcc287c4bcf74fc26b884f31901ea9792ec75607289b456f48fa%22%2C%20%22files%22%3A%20%7B%7D%7D",
        "dest": "cargo/vendor/gio-sys-0.14.0",
        "dest-filename": ".cargo-checksum.json"
    },
    {
        "type": "archive",
        "archive-type": "tar-gzip",
        "url": "https://static.crates.io/crates/glib/glib-0.14.8.crate",
        "sha256": "7c515f1e62bf151ef6635f528d05b02c11506de986e43b34a5c920ef0b3796a4",
        "dest": "cargo/vendor/glib-0.14.8"
    },
    {
        "type": "file",
        "url": "data:%7B%22package%22%3A%20%227c515f1e62bf151ef6635f528d05b02c11506de986e43b34a5c920ef0b3796a4%22%2C%20%22files%22%3A%20%7B%7D%7D",
        "dest": "cargo/vendor/glib-0.14.8",
        "dest-filename": ".cargo-checksum.json"
    },
    {
        "type": "archive",
        "archive-type": "tar-gzip",
        "url": "https://static.crates.io/crates/glib-macros/glib-macros-0.14.1.crate",
        "sha256": "2aad66361f66796bfc73f530c51ef123970eb895ffba991a234fcf7bea89e518",
        "dest": "cargo/vendor/glib-macros-0.14.1"
    },
    {
        "type": "file",
        "url": "data:%7B%22package%22%3A%20%222aad66361f66796bfc73f530c51ef123970eb895ffba991a234fcf7bea89e518%22%2C%20%22files%22%3A%20%7B%7D%7D",
        "dest": "cargo/vendor/glib-macros-0.14.1",
        "dest-filename": ".cargo-checksum.json"
    },
    {
        "type": "archive",
        "archive-type": "tar-gzip",
        "url": "https://static.crates.io/crates/glib-sys/glib-sys-0.14.0.crate",
        "sha256": "1c1d60554a212445e2a858e42a0e48cece1bd57b311a19a9468f70376cf554ae",
        "dest": "cargo/vendor/glib-sys-0.14.0"
    },
    {
        "type": "file",
        "url": "data:%7B%22package%22%3A%20%221c1d60554a212445e2a858e42a0e48cece1bd57b311a19a9468f70376cf554ae%22%2C%20%22files%22%3A%20%7B%7D%7D",
        "dest": "cargo/vendor/glib-sys-0.14.0",
        "dest-filename": ".cargo-checksum.json"
    },
    {
        "type": "archive",
        "archive-type": "tar-gzip",
        "url": "https://static.crates.io/crates/glob/glob-0.3.0.crate",
        "sha256": "9b919933a397b79c37e33b77bb2aa3dc8eb6e165ad809e58ff75bc7db2e34574",
        "dest": "cargo/vendor/glob-0.3.0"
    },
    {
        "type": "file",
        "url": "data:%7B%22package%22%3A%20%229b919933a397b79c37e33b77bb2aa3dc8eb6e165ad809e58ff75bc7db2e34574%22%2C%20%22files%22%3A%20%7B%7D%7D",
        "dest": "cargo/vendor/glob-0.3.0",
        "dest-filename": ".cargo-checksum.json"
    },
    {
        "type": "archive",
        "archive-type": "tar-gzip",
        "url": "https://static.crates.io/crates/gobject-sys/gobject-sys-0.14.0.crate",
        "sha256": "aa92cae29759dae34ab5921d73fff5ad54b3d794ab842c117e36cafc7994c3f5",
        "dest": "cargo/vendor/gobject-sys-0.14.0"
    },
    {
        "type": "file",
        "url": "data:%7B%22package%22%3A%20%22aa92cae29759dae34ab5921d73fff5ad54b3d794ab842c117e36cafc7994c3f5%22%2C%20%22files%22%3A%20%7B%7D%7D",
        "dest": "cargo/vendor/gobject-sys-0.14.0",
        "dest-filename": ".cargo-checksum.json"
    },
    {
        "type": "archive",
        "archive-type": "tar-gzip",
        "url": "https://static.crates.io/crates/gtk/gtk-0.14.3.crate",
        "sha256": "2eb51122dd3317e9327ec1e4faa151d1fa0d95664cd8fb8dcfacf4d4d29ac70c",
        "dest": "cargo/vendor/gtk-0.14.3"
    },
    {
        "type": "file",
        "url": "data:%7B%22package%22%3A%20%222eb51122dd3317e9327ec1e4faa151d1fa0d95664cd8fb8dcfacf4d4d29ac70c%22%2C%20%22files%22%3A%20%7B%7D%7D",
        "dest": "cargo/vendor/gtk-0.14.3",
        "dest-filename": ".cargo-checksum.json"
    },
    {
        "type": "archive",
        "archive-type": "tar-gzip",
        "url": "https://static.crates.io/crates/gtk-sys/gtk-sys-0.14.0.crate",
        "sha256": "8c14c8d3da0545785a7c5a120345b3abb534010fb8ae0f2ef3f47c027fba303e",
        "dest": "cargo/vendor/gtk-sys-0.14.0"
    },
    {
        "type": "file",
        "url": "data:%7B%22package%22%3A%20%228c14c8d3da0545785a7c5a120345b3abb534010fb8ae0f2ef3f47c027fba303e%22%2C%20%22files%22%3A%20%7B%7D%7D",
        "dest": "cargo/vendor/gtk-sys-0.14.0",
        "dest-filename": ".cargo-checksum.json"
    },
    {
        "type": "archive",
        "archive-type": "tar-gzip",
        "url": "https://static.crates.io/crates/gtk3-macros/gtk3-macros-0.14.0.crate",
        "sha256": "21de1da96dc117443fb03c2e270b2d34b7de98d0a79a19bbb689476173745b79",
        "dest": "cargo/vendor/gtk3-macros-0.14.0"
    },
    {
        "type": "file",
        "url": "data:%7B%22package%22%3A%20%2221de1da96dc117443fb03c2e270b2d34b7de98d0a79a19bbb689476173745b79%22%2C%20%22files%22%3A%20%7B%7D%7D",
        "dest": "cargo/vendor/gtk3-macros-0.14.0",
        "dest-filename": ".cargo-checksum.json"
    },
    {
        "type": "archive",
        "archive-type": "tar-gzip",
        "url": "https://static.crates.io/crates/heck/heck-0.3.3.crate",
        "sha256": "6d621efb26863f0e9924c6ac577e8275e5e6b77455db64ffa6c65c904e9e132c",
        "dest": "cargo/vendor/heck-0.3.3"
    },
    {
        "type": "file",
        "url": "data:%7B%22package%22%3A%20%226d621efb26863f0e9924c6ac577e8275e5e6b77455db64ffa6c65c904e9e132c%22%2C%20%22files%22%3A%20%7B%7D%7D",
        "dest": "cargo/vendor/heck-0.3.3",
        "dest-filename": ".cargo-checksum.json"
    },
    {
        "type": "archive",
        "archive-type": "tar-gzip",
        "url": "https://static.crates.io/crates/itertools/itertools-0.10.1.crate",
        "sha256": "69ddb889f9d0d08a67338271fa9b62996bc788c7796a5c18cf057420aaed5eaf",
        "dest": "cargo/vendor/itertools-0.10.1"
    },
    {
        "type": "file",
        "url": "data:%7B%22package%22%3A%20%2269ddb889f9d0d08a67338271fa9b62996bc788c7796a5c18cf057420aaed5eaf%22%2C%20%22files%22%3A%20%7B%7D%7D",
        "dest": "cargo/vendor/itertools-0.10.1",
        "dest-filename": ".cargo-checksum.json"
    },
    {
        "type": "archive",
        "archive-type": "tar-gzip",
        "url": "https://static.crates.io/crates/lazy_static/lazy_static-1.4.0.crate",
        "sha256": "e2abad23fbc42b3700f2f279844dc832adb2b2eb069b2df918f455c4e18cc646",
        "dest": "cargo/vendor/lazy_static-1.4.0"
    },
    {
        "type": "file",
        "url": "data:%7B%22package%22%3A%20%22e2abad23fbc42b3700f2f279844dc832adb2b2eb069b2df918f455c4e18cc646%22%2C%20%22files%22%3A%20%7B%7D%7D",
        "dest": "cargo/vendor/lazy_static-1.4.0",
        "dest-filename": ".cargo-checksum.json"
    },
    {
        "type": "archive",
        "archive-type": "tar-gzip",
        "url": "https://static.crates.io/crates/lazycell/lazycell-1.3.0.crate",
        "sha256": "830d08ce1d1d941e6b30645f1a0eb5643013d835ce3779a5fc208261dbe10f55",
        "dest": "cargo/vendor/lazycell-1.3.0"
    },
    {
        "type": "file",
        "url": "data:%7B%22package%22%3A%20%22830d08ce1d1d941e6b30645f1a0eb5643013d835ce3779a5fc208261dbe10f55%22%2C%20%22files%22%3A%20%7B%7D%7D",
        "dest": "cargo/vendor/lazycell-1.3.0",
        "dest-filename": ".cargo-checksum.json"
    },
    {
        "type": "archive",
        "archive-type": "tar-gzip",
        "url": "https://static.crates.io/crates/libc/libc-0.2.108.crate",
        "sha256": "8521a1b57e76b1ec69af7599e75e38e7b7fad6610f037db8c79b127201b5d119",
        "dest": "cargo/vendor/libc-0.2.108"
    },
    {
        "type": "file",
        "url": "data:%7B%22package%22%3A%20%228521a1b57e76b1ec69af7599e75e38e7b7fad6610f037db8c79b127201b5d119%22%2C%20%22files%22%3A%20%7B%7D%7D",
        "dest": "cargo/vendor/libc-0.2.108",
        "dest-filename": ".cargo-checksum.json"
    },
    {
        "type": "archive",
        "archive-type": "tar-gzip",
        "url": "https://static.crates.io/crates/libloading/libloading-0.7.2.crate",
        "sha256": "afe203d669ec979b7128619bae5a63b7b42e9203c1b29146079ee05e2f604b52",
        "dest": "cargo/vendor/libloading-0.7.2"
    },
    {
        "type": "file",
        "url": "data:%7B%22package%22%3A%20%22afe203d669ec979b7128619bae5a63b7b42e9203c1b29146079ee05e2f604b52%22%2C%20%22files%22%3A%20%7B%7D%7D",
        "dest": "cargo/vendor/libloading-0.7.2",
        "dest-filename": ".cargo-checksum.json"
    },
    {
        "type": "archive",
        "archive-type": "tar-gzip",
        "url": "https://static.crates.io/crates/memchr/memchr-2.4.1.crate",
        "sha256": "308cc39be01b73d0d18f82a0e7b2a3df85245f84af96fdddc5d202d27e47b86a",
        "dest": "cargo/vendor/memchr-2.4.1"
    },
    {
        "type": "file",
        "url": "data:%7B%22package%22%3A%20%22308cc39be01b73d0d18f82a0e7b2a3df85245f84af96fdddc5d202d27e47b86a%22%2C%20%22files%22%3A%20%7B%7D%7D",
        "dest": "cargo/vendor/memchr-2.4.1",
        "dest-filename": ".cargo-checksum.json"
    },
    {
        "type": "archive",
        "archive-type": "tar-gzip",
        "url": "https://static.crates.io/crates/memoffset/memoffset-0.6.4.crate",
        "sha256": "59accc507f1338036a0477ef61afdae33cde60840f4dfe481319ce3ad116ddf9",
        "dest": "cargo/vendor/memoffset-0.6.4"
    },
    {
        "type": "file",
        "url": "data:%7B%22package%22%3A%20%2259accc507f1338036a0477ef61afdae33cde60840f4dfe481319ce3ad116ddf9%22%2C%20%22files%22%3A%20%7B%7D%7D",
        "dest": "cargo/vendor/memoffset-0.6.4",
        "dest-filename": ".cargo-checksum.json"
    },
    {
        "type": "archive",
        "archive-type": "tar-gzip",
        "url": "https://static.crates.io/crates/nom/nom-5.1.2.crate",
        "sha256": "ffb4262d26ed83a1c0a33a38fe2bb15797329c85770da05e6b828ddb782627af",
        "dest": "cargo/vendor/nom-5.1.2"
    },
    {
        "type": "file",
        "url": "data:%7B%22package%22%3A%20%22ffb4262d26ed83a1c0a33a38fe2bb15797329c85770da05e6b828ddb782627af%22%2C%20%22files%22%3A%20%7B%7D%7D",
        "dest": "cargo/vendor/nom-5.1.2",
        "dest-filename": ".cargo-checksum.json"
    },
    {
        "type": "archive",
        "archive-type": "tar-gzip",
        "url": "https://static.crates.io/crates/num-traits/num-traits-0.2.14.crate",
        "sha256": "9a64b1ec5cda2586e284722486d802acf1f7dbdc623e2bfc57e65ca1cd099290",
        "dest": "cargo/vendor/num-traits-0.2.14"
    },
    {
        "type": "file",
        "url": "data:%7B%22package%22%3A%20%229a64b1ec5cda2586e284722486d802acf1f7dbdc623e2bfc57e65ca1cd099290%22%2C%20%22files%22%3A%20%7B%7D%7D",
        "dest": "cargo/vendor/num-traits-0.2.14",
        "dest-filename": ".cargo-checksum.json"
    },
    {
        "type": "archive",
        "archive-type": "tar-gzip",
        "url": "https://static.crates.io/crates/once_cell/once_cell-1.8.0.crate",
        "sha256": "692fcb63b64b1758029e0a96ee63e049ce8c5948587f2f7208df04625e5f6b56",
        "dest": "cargo/vendor/once_cell-1.8.0"
    },
    {
        "type": "file",
        "url": "data:%7B%22package%22%3A%20%22692fcb63b64b1758029e0a96ee63e049ce8c5948587f2f7208df04625e5f6b56%22%2C%20%22files%22%3A%20%7B%7D%7D",
        "dest": "cargo/vendor/once_cell-1.8.0",
        "dest-filename": ".cargo-checksum.json"
    },
    {
        "type": "archive",
        "archive-type": "tar-gzip",
        "url": "https://static.crates.io/crates/pango/pango-0.14.8.crate",
        "sha256": "546fd59801e5ca735af82839007edd226fe7d3bb06433ec48072be4439c28581",
        "dest": "cargo/vendor/pango-0.14.8"
    },
    {
        "type": "file",
        "url": "data:%7B%22package%22%3A%20%22546fd59801e5ca735af82839007edd226fe7d3bb06433ec48072be4439c28581%22%2C%20%22files%22%3A%20%7B%7D%7D",
        "dest": "cargo/vendor/pango-0.14.8",
        "dest-filename": ".cargo-checksum.json"
    },
    {
        "type": "archive",
        "archive-type": "tar-gzip",
        "url": "https://static.crates.io/crates/pango-sys/pango-sys-0.14.0.crate",
        "sha256": "2367099ca5e761546ba1d501955079f097caa186bb53ce0f718dca99ac1942fe",
        "dest": "cargo/vendor/pango-sys-0.14.0"
    },
    {
        "type": "file",
        "url": "data:%7B%22package%22%3A%20%222367099ca5e761546ba1d501955079f097caa186bb53ce0f718dca99ac1942fe%22%2C%20%22files%22%3A%20%7B%7D%7D",
        "dest": "cargo/vendor/pango-sys-0.14.0",
        "dest-filename": ".cargo-checksum.json"
    },
    {
        "type": "archive",
        "archive-type": "tar-gzip",
        "url": "https://static.crates.io/crates/peeking_take_while/peeking_take_while-0.1.2.crate",
        "sha256": "19b17cddbe7ec3f8bc800887bab5e717348c95ea2ca0b1bf0837fb964dc67099",
        "dest": "cargo/vendor/peeking_take_while-0.1.2"
    },
    {
        "type": "file",
        "url": "data:%7B%22package%22%3A%20%2219b17cddbe7ec3f8bc800887bab5e717348c95ea2ca0b1bf0837fb964dc67099%22%2C%20%22files%22%3A%20%7B%7D%7D",
        "dest": "cargo/vendor/peeking_take_while-0.1.2",
        "dest-filename": ".cargo-checksum.json"
    },
    {
        "type": "archive",
        "archive-type": "tar-gzip",
        "url": "https://static.crates.io/crates/pest/pest-2.1.3.crate",
        "sha256": "10f4872ae94d7b90ae48754df22fd42ad52ce740b8f370b03da4835417403e53",
        "dest": "cargo/vendor/pest-2.1.3"
    },
    {
        "type": "file",
        "url": "data:%7B%22package%22%3A%20%2210f4872ae94d7b90ae48754df22fd42ad52ce740b8f370b03da4835417403e53%22%2C%20%22files%22%3A%20%7B%7D%7D",
        "dest": "cargo/vendor/pest-2.1.3",
        "dest-filename": ".cargo-checksum.json"
    },
    {
        "type": "archive",
        "archive-type": "tar-gzip",
        "url": "https://static.crates.io/crates/pin-project-lite/pin-project-lite-0.2.7.crate",
        "sha256": "8d31d11c69a6b52a174b42bdc0c30e5e11670f90788b2c471c31c1d17d449443",
        "dest": "cargo/vendor/pin-project-lite-0.2.7"
    },
    {
        "type": "file",
        "url": "data:%7B%22package%22%3A%20%228d31d11c69a6b52a174b42bdc0c30e5e11670f90788b2c471c31c1d17d449443%22%2C%20%22files%22%3A%20%7B%7D%7D",
        "dest": "cargo/vendor/pin-project-lite-0.2.7",
        "dest-filename": ".cargo-checksum.json"
    },
    {
        "type": "archive",
        "archive-type": "tar-gzip",
        "url": "https://static.crates.io/crates/pin-utils/pin-utils-0.1.0.crate",
        "sha256": "8b870d8c151b6f2fb93e84a13146138f05d02ed11c7e7c54f8826aaaf7c9f184",
        "dest": "cargo/vendor/pin-utils-0.1.0"
    },
    {
        "type": "file",
        "url": "data:%7B%22package%22%3A%20%228b870d8c151b6f2fb93e84a13146138f05d02ed11c7e7c54f8826aaaf7c9f184%22%2C%20%22files%22%3A%20%7B%7D%7D",
        "dest": "cargo/vendor/pin-utils-0.1.0",
        "dest-filename": ".cargo-checksum.json"
    },
    {
        "type": "archive",
        "archive-type": "tar-gzip",
        "url": "https://static.crates.io/crates/pkg-config/pkg-config-0.3.22.crate",
        "sha256": "12295df4f294471248581bc09bef3c38a5e46f1e36d6a37353621a0c6c357e1f",
        "dest": "cargo/vendor/pkg-config-0.3.22"
    },
    {
        "type": "file",
        "url": "data:%7B%22package%22%3A%20%2212295df4f294471248581bc09bef3c38a5e46f1e36d6a37353621a0c6c357e1f%22%2C%20%22files%22%3A%20%7B%7D%7D",
        "dest": "cargo/vendor/pkg-config-0.3.22",
        "dest-filename": ".cargo-checksum.json"
    },
    {
        "type": "archive",
        "archive-type": "tar-gzip",
        "url": "https://static.crates.io/crates/proc-macro-crate/proc-macro-crate-1.1.0.crate",
        "sha256": "1ebace6889caf889b4d3f76becee12e90353f2b8c7d875534a71e5742f8f6f83",
        "dest": "cargo/vendor/proc-macro-crate-1.1.0"
    },
    {
        "type": "file",
        "url": "data:%7B%22package%22%3A%20%221ebace6889caf889b4d3f76becee12e90353f2b8c7d875534a71e5742f8f6f83%22%2C%20%22files%22%3A%20%7B%7D%7D",
        "dest": "cargo/vendor/proc-macro-crate-1.1.0",
        "dest-filename": ".cargo-checksum.json"
    },
    {
        "type": "archive",
        "archive-type": "tar-gzip",
        "url": "https://static.crates.io/crates/proc-macro-error/proc-macro-error-1.0.4.crate",
        "sha256": "da25490ff9892aab3fcf7c36f08cfb902dd3e71ca0f9f9517bea02a73a5ce38c",
        "dest": "cargo/vendor/proc-macro-error-1.0.4"
    },
    {
        "type": "file",
        "url": "data:%7B%22package%22%3A%20%22da25490ff9892aab3fcf7c36f08cfb902dd3e71ca0f9f9517bea02a73a5ce38c%22%2C%20%22files%22%3A%20%7B%7D%7D",
        "dest": "cargo/vendor/proc-macro-error-1.0.4",
        "dest-filename": ".cargo-checksum.json"
    },
    {
        "type": "archive",
        "archive-type": "tar-gzip",
        "url": "https://static.crates.io/crates/proc-macro-error-attr/proc-macro-error-attr-1.0.4.crate",
        "sha256": "a1be40180e52ecc98ad80b184934baf3d0d29f979574e439af5a55274b35f869",
        "dest": "cargo/vendor/proc-macro-error-attr-1.0.4"
    },
    {
        "type": "file",
        "url": "data:%7B%22package%22%3A%20%22a1be40180e52ecc98ad80b184934baf3d0d29f979574e439af5a55274b35f869%22%2C%20%22files%22%3A%20%7B%7D%7D",
        "dest": "cargo/vendor/proc-macro-error-attr-1.0.4",
        "dest-filename": ".cargo-checksum.json"
    },
    {
        "type": "archive",
        "archive-type": "tar-gzip",
        "url": "https://static.crates.io/crates/proc-macro2/proc-macro2-1.0.32.crate",
        "sha256": "ba508cc11742c0dc5c1659771673afbab7a0efab23aa17e854cbab0837ed0b43",
        "dest": "cargo/vendor/proc-macro2-1.0.32"
    },
    {
        "type": "file",
        "url": "data:%7B%22package%22%3A%20%22ba508cc11742c0dc5c1659771673afbab7a0efab23aa17e854cbab0837ed0b43%22%2C%20%22files%22%3A%20%7B%7D%7D",
        "dest": "cargo/vendor/proc-macro2-1.0.32",
        "dest-filename": ".cargo-checksum.json"
    },
    {
        "type": "archive",
        "archive-type": "tar-gzip",
        "url": "https://static.crates.io/crates/quote/quote-1.0.10.crate",
        "sha256": "38bc8cc6a5f2e3655e0899c1b848643b2562f853f114bfec7be120678e3ace05",
        "dest": "cargo/vendor/quote-1.0.10"
    },
    {
        "type": "file",
        "url": "data:%7B%22package%22%3A%20%2238bc8cc6a5f2e3655e0899c1b848643b2562f853f114bfec7be120678e3ace05%22%2C%20%22files%22%3A%20%7B%7D%7D",
        "dest": "cargo/vendor/quote-1.0.10",
        "dest-filename": ".cargo-checksum.json"
    },
    {
        "type": "archive",
        "archive-type": "tar-gzip",
        "url": "https://static.crates.io/crates/regex/regex-1.5.4.crate",
        "sha256": "d07a8629359eb56f1e2fb1652bb04212c072a87ba68546a04065d525673ac461",
        "dest": "cargo/vendor/regex-1.5.4"
    },
    {
        "type": "file",
        "url": "data:%7B%22package%22%3A%20%22d07a8629359eb56f1e2fb1652bb04212c072a87ba68546a04065d525673ac461%22%2C%20%22files%22%3A%20%7B%7D%7D",
        "dest": "cargo/vendor/regex-1.5.4",
        "dest-filename": ".cargo-checksum.json"
    },
    {
        "type": "archive",
        "archive-type": "tar-gzip",
        "url": "https://static.crates.io/crates/regex-syntax/regex-syntax-0.6.25.crate",
        "sha256": "f497285884f3fcff424ffc933e56d7cbca511def0c9831a7f9b5f6153e3cc89b",
        "dest": "cargo/vendor/regex-syntax-0.6.25"
    },
    {
        "type": "file",
        "url": "data:%7B%22package%22%3A%20%22f497285884f3fcff424ffc933e56d7cbca511def0c9831a7f9b5f6153e3cc89b%22%2C%20%22files%22%3A%20%7B%7D%7D",
        "dest": "cargo/vendor/regex-syntax-0.6.25",
        "dest-filename": ".cargo-checksum.json"
    },
    {
        "type": "archive",
        "archive-type": "tar-gzip",
        "url": "https://static.crates.io/crates/rustc-hash/rustc-hash-1.1.0.crate",
        "sha256": "08d43f7aa6b08d49f382cde6a7982047c3426db949b1424bc4b7ec9ae12c6ce2",
        "dest": "cargo/vendor/rustc-hash-1.1.0"
    },
    {
        "type": "file",
        "url": "data:%7B%22package%22%3A%20%2208d43f7aa6b08d49f382cde6a7982047c3426db949b1424bc4b7ec9ae12c6ce2%22%2C%20%22files%22%3A%20%7B%7D%7D",
        "dest": "cargo/vendor/rustc-hash-1.1.0",
        "dest-filename": ".cargo-checksum.json"
    },
    {
        "type": "archive",
        "archive-type": "tar-gzip",
        "url": "https://static.crates.io/crates/rustc_version/rustc_version-0.3.3.crate",
        "sha256": "f0dfe2087c51c460008730de8b57e6a320782fbfb312e1f4d520e6c6fae155ee",
        "dest": "cargo/vendor/rustc_version-0.3.3"
    },
    {
        "type": "file",
        "url": "data:%7B%22package%22%3A%20%22f0dfe2087c51c460008730de8b57e6a320782fbfb312e1f4d520e6c6fae155ee%22%2C%20%22files%22%3A%20%7B%7D%7D",
        "dest": "cargo/vendor/rustc_version-0.3.3",
        "dest-filename": ".cargo-checksum.json"
    },
    {
        "type": "archive",
        "archive-type": "tar-gzip",
        "url": "https://static.crates.io/crates/semver/semver-0.11.0.crate",
        "sha256": "f301af10236f6df4160f7c3f04eec6dbc70ace82d23326abad5edee88801c6b6",
        "dest": "cargo/vendor/semver-0.11.0"
    },
    {
        "type": "file",
        "url": "data:%7B%22package%22%3A%20%22f301af10236f6df4160f7c3f04eec6dbc70ace82d23326abad5edee88801c6b6%22%2C%20%22files%22%3A%20%7B%7D%7D",
        "dest": "cargo/vendor/semver-0.11.0",
        "dest-filename": ".cargo-checksum.json"
    },
    {
        "type": "archive",
        "archive-type": "tar-gzip",
        "url": "https://static.crates.io/crates/semver-parser/semver-parser-0.10.2.crate",
        "sha256": "00b0bef5b7f9e0df16536d3961cfb6e84331c065b4066afb39768d0e319411f7",
        "dest": "cargo/vendor/semver-parser-0.10.2"
    },
    {
        "type": "file",
        "url": "data:%7B%22package%22%3A%20%2200b0bef5b7f9e0df16536d3961cfb6e84331c065b4066afb39768d0e319411f7%22%2C%20%22files%22%3A%20%7B%7D%7D",
        "dest": "cargo/vendor/semver-parser-0.10.2",
        "dest-filename": ".cargo-checksum.json"
    },
    {
        "type": "archive",
        "archive-type": "tar-gzip",
        "url": "https://static.crates.io/crates/serde/serde-1.0.130.crate",
        "sha256": "f12d06de37cf59146fbdecab66aa99f9fe4f78722e3607577a5375d66bd0c913",
        "dest": "cargo/vendor/serde-1.0.130"
    },
    {
        "type": "file",
        "url": "data:%7B%22package%22%3A%20%22f12d06de37cf59146fbdecab66aa99f9fe4f78722e3607577a5375d66bd0c913%22%2C%20%22files%22%3A%20%7B%7D%7D",
        "dest": "cargo/vendor/serde-1.0.130",
        "dest-filename": ".cargo-checksum.json"
    },
    {
        "type": "archive",
        "archive-type": "tar-gzip",
        "url": "https://static.crates.io/crates/shlex/shlex-0.1.1.crate",
        "sha256": "7fdf1b9db47230893d76faad238fd6097fd6d6a9245cd7a4d90dbd639536bbd2",
        "dest": "cargo/vendor/shlex-0.1.1"
    },
    {
        "type": "file",
        "url": "data:%7B%22package%22%3A%20%227fdf1b9db47230893d76faad238fd6097fd6d6a9245cd7a4d90dbd639536bbd2%22%2C%20%22files%22%3A%20%7B%7D%7D",
        "dest": "cargo/vendor/shlex-0.1.1",
        "dest-filename": ".cargo-checksum.json"
    },
    {
        "type": "archive",
        "archive-type": "tar-gzip",
        "url": "https://static.crates.io/crates/slab/slab-0.4.5.crate",
        "sha256": "9def91fd1e018fe007022791f865d0ccc9b3a0d5001e01aabb8b40e46000afb5",
        "dest": "cargo/vendor/slab-0.4.5"
    },
    {
        "type": "file",
        "url": "data:%7B%22package%22%3A%20%229def91fd1e018fe007022791f865d0ccc9b3a0d5001e01aabb8b40e46000afb5%22%2C%20%22files%22%3A%20%7B%7D%7D",
        "dest": "cargo/vendor/slab-0.4.5",
        "dest-filename": ".cargo-checksum.json"
    },
    {
        "type": "archive",
        "archive-type": "tar-gzip",
        "url": "https://static.crates.io/crates/smallvec/smallvec-1.7.0.crate",
        "sha256": "1ecab6c735a6bb4139c0caafd0cc3635748bbb3acf4550e8138122099251f309",
        "dest": "cargo/vendor/smallvec-1.7.0"
    },
    {
        "type": "file",
        "url": "data:%7B%22package%22%3A%20%221ecab6c735a6bb4139c0caafd0cc3635748bbb3acf4550e8138122099251f309%22%2C%20%22files%22%3A%20%7B%7D%7D",
        "dest": "cargo/vendor/smallvec-1.7.0",
        "dest-filename": ".cargo-checksum.json"
    },
    {
        "type": "archive",
        "archive-type": "tar-gzip",
        "url": "https://static.crates.io/crates/stdweb/stdweb-0.1.3.crate",
        "sha256": "ef5430c8e36b713e13b48a9f709cc21e046723fe44ce34587b73a830203b533e",
        "dest": "cargo/vendor/stdweb-0.1.3"
    },
    {
        "type": "file",
        "url": "data:%7B%22package%22%3A%20%22ef5430c8e36b713e13b48a9f709cc21e046723fe44ce34587b73a830203b533e%22%2C%20%22files%22%3A%20%7B%7D%7D",
        "dest": "cargo/vendor/stdweb-0.1.3",
        "dest-filename": ".cargo-checksum.json"
    },
    {
        "type": "archive",
        "archive-type": "tar-gzip",
        "url": "https://static.crates.io/crates/strum/strum-0.21.0.crate",
        "sha256": "aaf86bbcfd1fa9670b7a129f64fc0c9fcbbfe4f1bc4210e9e98fe71ffc12cde2",
        "dest": "cargo/vendor/strum-0.21.0"
    },
    {
        "type": "file",
        "url": "data:%7B%22package%22%3A%20%22aaf86bbcfd1fa9670b7a129f64fc0c9fcbbfe4f1bc4210e9e98fe71ffc12cde2%22%2C%20%22files%22%3A%20%7B%7D%7D",
        "dest": "cargo/vendor/strum-0.21.0",
        "dest-filename": ".cargo-checksum.json"
    },
    {
        "type": "archive",
        "archive-type": "tar-gzip",
        "url": "https://static.crates.io/crates/strum_macros/strum_macros-0.21.1.crate",
        "sha256": "d06aaeeee809dbc59eb4556183dd927df67db1540de5be8d3ec0b6636358a5ec",
        "dest": "cargo/vendor/strum_macros-0.21.1"
    },
    {
        "type": "file",
        "url": "data:%7B%22package%22%3A%20%22d06aaeeee809dbc59eb4556183dd927df67db1540de5be8d3ec0b6636358a5ec%22%2C%20%22files%22%3A%20%7B%7D%7D",
        "dest": "cargo/vendor/strum_macros-0.21.1",
        "dest-filename": ".cargo-checksum.json"
    },
    {
        "type": "archive",
        "archive-type": "tar-gzip",
        "url": "https://static.crates.io/crates/syn/syn-1.0.81.crate",
        "sha256": "f2afee18b8beb5a596ecb4a2dce128c719b4ba399d34126b9e4396e3f9860966",
        "dest": "cargo/vendor/syn-1.0.81"
    },
    {
        "type": "file",
        "url": "data:%7B%22package%22%3A%20%22f2afee18b8beb5a596ecb4a2dce128c719b4ba399d34126b9e4396e3f9860966%22%2C%20%22files%22%3A%20%7B%7D%7D",
        "dest": "cargo/vendor/syn-1.0.81",
        "dest-filename": ".cargo-checksum.json"
    },
    {
        "type": "archive",
        "archive-type": "tar-gzip",
        "url": "https://static.crates.io/crates/system-deps/system-deps-3.2.0.crate",
        "sha256": "480c269f870722b3b08d2f13053ce0c2ab722839f472863c3e2d61ff3a1c2fa6",
        "dest": "cargo/vendor/system-deps-3.2.0"
    },
    {
        "type": "file",
        "url": "data:%7B%22package%22%3A%20%22480c269f870722b3b08d2f13053ce0c2ab722839f472863c3e2d61ff3a1c2fa6%22%2C%20%22files%22%3A%20%7B%7D%7D",
        "dest": "cargo/vendor/system-deps-3.2.0",
        "dest-filename": ".cargo-checksum.json"
    },
    {
        "type": "archive",
        "archive-type": "tar-gzip",
        "url": "https://static.crates.io/crates/thiserror/thiserror-1.0.30.crate",
        "sha256": "854babe52e4df1653706b98fcfc05843010039b406875930a70e4d9644e5c417",
        "dest": "cargo/vendor/thiserror-1.0.30"
    },
    {
        "type": "file",
        "url": "data:%7B%22package%22%3A%20%22854babe52e4df1653706b98fcfc05843010039b406875930a70e4d9644e5c417%22%2C%20%22files%22%3A%20%7B%7D%7D",
        "dest": "cargo/vendor/thiserror-1.0.30",
        "dest-filename": ".cargo-checksum.json"
    },
    {
        "type": "archive",
        "archive-type": "tar-gzip",
        "url": "https://static.crates.io/crates/thiserror-impl/thiserror-impl-1.0.30.crate",
        "sha256": "aa32fd3f627f367fe16f893e2597ae3c05020f8bba2666a4e6ea73d377e5714b",
        "dest": "cargo/vendor/thiserror-impl-1.0.30"
    },
    {
        "type": "file",
        "url": "data:%7B%22package%22%3A%20%22aa32fd3f627f367fe16f893e2597ae3c05020f8bba2666a4e6ea73d377e5714b%22%2C%20%22files%22%3A%20%7B%7D%7D",
        "dest": "cargo/vendor/thiserror-impl-1.0.30",
        "dest-filename": ".cargo-checksum.json"
    },
    {
        "type": "archive",
        "archive-type": "tar-gzip",
        "url": "https://static.crates.io/crates/toml/toml-0.5.8.crate",
        "sha256": "a31142970826733df8241ef35dc040ef98c679ab14d7c3e54d827099b3acecaa",
        "dest": "cargo/vendor/toml-0.5.8"
    },
    {
        "type": "file",
        "url": "data:%7B%22package%22%3A%20%22a31142970826733df8241ef35dc040ef98c679ab14d7c3e54d827099b3acecaa%22%2C%20%22files%22%3A%20%7B%7D%7D",
        "dest": "cargo/vendor/toml-0.5.8",
        "dest-filename": ".cargo-checksum.json"
    },
    {
        "type": "archive",
        "archive-type": "tar-gzip",
        "url": "https://static.crates.io/crates/ucd-trie/ucd-trie-0.1.3.crate",
        "sha256": "56dee185309b50d1f11bfedef0fe6d036842e3fb77413abef29f8f8d1c5d4c1c",
        "dest": "cargo/vendor/ucd-trie-0.1.3"
    },
    {
        "type": "file",
        "url": "data:%7B%22package%22%3A%20%2256dee185309b50d1f11bfedef0fe6d036842e3fb77413abef29f8f8d1c5d4c1c%22%2C%20%22files%22%3A%20%7B%7D%7D",
        "dest": "cargo/vendor/ucd-trie-0.1.3",
        "dest-filename": ".cargo-checksum.json"
    },
    {
        "type": "archive",
        "archive-type": "tar-gzip",
        "url": "https://static.crates.io/crates/unicode-segmentation/unicode-segmentation-1.8.0.crate",
        "sha256": "8895849a949e7845e06bd6dc1aa51731a103c42707010a5b591c0038fb73385b",
        "dest": "cargo/vendor/unicode-segmentation-1.8.0"
    },
    {
        "type": "file",
        "url": "data:%7B%22package%22%3A%20%228895849a949e7845e06bd6dc1aa51731a103c42707010a5b591c0038fb73385b%22%2C%20%22files%22%3A%20%7B%7D%7D",
        "dest": "cargo/vendor/unicode-segmentation-1.8.0",
        "dest-filename": ".cargo-checksum.json"
    },
    {
        "type": "archive",
        "archive-type": "tar-gzip",
        "url": "https://static.crates.io/crates/unicode-xid/unicode-xid-0.2.2.crate",
        "sha256": "8ccb82d61f80a663efe1f787a51b16b5a51e3314d6ac365b08639f52387b33f3",
        "dest": "cargo/vendor/unicode-xid-0.2.2"
    },
    {
        "type": "file",
        "url": "data:%7B%22package%22%3A%20%228ccb82d61f80a663efe1f787a51b16b5a51e3314d6ac365b08639f52387b33f3%22%2C%20%22files%22%3A%20%7B%7D%7D",
        "dest": "cargo/vendor/unicode-xid-0.2.2",
        "dest-filename": ".cargo-checksum.json"
    },
    {
        "type": "archive",
        "archive-type": "tar-gzip",
        "url": "https://static.crates.io/crates/version-compare/version-compare-0.0.11.crate",
        "sha256": "1c18c859eead79d8b95d09e4678566e8d70105c4e7b251f707a03df32442661b",
        "dest": "cargo/vendor/version-compare-0.0.11"
    },
    {
        "type": "file",
        "url": "data:%7B%22package%22%3A%20%221c18c859eead79d8b95d09e4678566e8d70105c4e7b251f707a03df32442661b%22%2C%20%22files%22%3A%20%7B%7D%7D",
        "dest": "cargo/vendor/version-compare-0.0.11",
        "dest-filename": ".cargo-checksum.json"
    },
    {
        "type": "archive",
        "archive-type": "tar-gzip",
        "url": "https://static.crates.io/crates/version_check/version_check-0.9.3.crate",
        "sha256": "5fecdca9a5291cc2b8dcf7dc02453fee791a280f3743cb0905f8822ae463b3fe",
        "dest": "cargo/vendor/version_check-0.9.3"
    },
    {
        "type": "file",
        "url": "data:%7B%22package%22%3A%20%225fecdca9a5291cc2b8dcf7dc02453fee791a280f3743cb0905f8822ae463b3fe%22%2C%20%22files%22%3A%20%7B%7D%7D",
        "dest": "cargo/vendor/version_check-0.9.3",
        "dest-filename": ".cargo-checksum.json"
    },
    {
        "type": "archive",
        "archive-type": "tar-gzip",
        "url": "https://static.crates.io/crates/winapi/winapi-0.3.9.crate",
        "sha256": "5c839a674fcd7a98952e593242ea400abe93992746761e38641405d28b00f419",
        "dest": "cargo/vendor/winapi-0.3.9"
    },
    {
        "type": "file",
        "url": "data:%7B%22package%22%3A%20%225c839a674fcd7a98952e593242ea400abe93992746761e38641405d28b00f419%22%2C%20%22files%22%3A%20%7B%7D%7D",
        "dest": "cargo/vendor/winapi-0.3.9",
        "dest-filename": ".cargo-checksum.json"
    },
    {
        "type": "archive",
        "archive-type": "tar-gzip",
        "url": "https://static.crates.io/crates/winapi-i686-pc-windows-gnu/winapi-i686-pc-windows-gnu-0.4.0.crate",
        "sha256": "ac3b87c63620426dd9b991e5ce0329eff545bccbbb34f3be09ff6fb6ab51b7b6",
        "dest": "cargo/vendor/winapi-i686-pc-windows-gnu-0.4.0"
    },
    {
        "type": "file",
        "url": "data:%7B%22package%22%3A%20%22ac3b87c63620426dd9b991e5ce0329eff545bccbbb34f3be09ff6fb6ab51b7b6%22%2C%20%22files%22%3A%20%7B%7D%7D",
        "dest": "cargo/vendor/winapi-i686-pc-windows-gnu-0.4.0",
        "dest-filename": ".cargo-checksum.json"
    },
    {
        "type": "archive",
        "archive-type": "tar-gzip",
        "url": "https://static.crates.io/crates/winapi-x86_64-pc-windows-gnu/winapi-x86_64-pc-windows-gnu-0.4.0.crate",
        "sha256": "712e227841d057c1ee1cd2fb22fa7e5a5461ae8e48fa2ca79ec42cfc1931183f",
        "dest": "cargo/vendor/winapi-x86_64-pc-windows-gnu-0.4.0"
    },
    {
        "type": "file",
        "url": "data:%7B%22package%22%3A%20%22712e227841d057c1ee1cd2fb22fa7e5a5461ae8e48fa2ca79ec42cfc1931183f%22%2C%20%22files%22%3A%20%7B%7D%7D",
        "dest": "cargo/vendor/winapi-x86_64-pc-windows-gnu-0.4.0",
        "dest-filename": ".cargo-checksum.json"
    },
    {
        "type": "file",
        "url": "data:%5Bsource.vendored-sources%5D%0Adirectory%20%3D%20%22cargo/vendor%22%0A%0A%5Bsource.crates-io%5D%0Areplace-with%20%3D%20%22vendored-sources%22%0A",
        "dest": "cargo",
        "dest-filename": "config"
    }
]